…
### 1. Parsing the raw transcripts.

`01_friends_parse_html.R`

* reads in and parses transcripts for all 236 episodes of the Friends series, creating a .csv file with:
	* episode id
	* episode title
	* ‘person’ speaking (not always a person, could be a scene, a title, author, etc)
	* a line
	* type of ‘line’ based on the beginning of the line

Please go through the script for more detail.

```R
# A tibble: 69,535 x 7
   id    title                                                                 person  line   type  season scene2
   <chr> <chr>                                                                 <chr>   <chr>  <chr> <chr>   <int>
 1 0101  The One Where Monica Gets a New Roomate (The Pilot-The Uncut Version) writte… marta… writ… 01          0
 2 0101  The One Where Monica Gets a New Roomate (The Pilot-The Uncut Version) [scene  centr… scene 01          1
 3 0101  The One Where Monica Gets a New Roomate (The Pilot-The Uncut Version) monica  there… pers… 01          1
 4 0101  The One Where Monica Gets a New Roomate (The Pilot-The Uncut Version) joey    c'mon… pers… 01          1
 5 0101  The One Where Monica Gets a New Roomate (The Pilot-The Uncut Version) chandl… all r… pers… 01          1
 6 0101  The One Where Monica Gets a New Roomate (The Pilot-The Uncut Version) phoebe  wait,… pers… 01          1
 7 0101  The One Where Monica Gets a New Roomate (The Pilot-The Uncut Version) (they … NA     acti… 01          1
 8 0101  The One Where Monica Gets a New Roomate (The Pilot-The Uncut Version) phoebe  just,… pers… 01          1
 9 0101  The One Where Monica Gets a New Roomate (The Pilot-The Uncut Version) monica  okay,… pers… 01          1
10 0101  The One Where Monica Gets a New Roomate (The Pilot-The Uncut Version) chandl… sound… pers… 01          1
# ... with 69,525 more rows
```
…
